[09:14] -- b'Usuario id:122 nombre:vsalas@acafi.com ingreso'
[09:32] -- b'Usuario id:122 nombre:vsalas@acafi.com ingreso'
[09:42] -- b'Usuario id:122 nombre:vsalas@acafi.com ingreso'
[09:53] -- b'Usuario id:122 nombre:vsalas@acafi.com ingreso'
[10:01] -- b'Usuario id:122 nombre:vsalas@acafi.com ingreso'
[10:12] -- b'Usuario id:122 nombre:vsalas@acafi.com ingreso'
[10:25] -- b'Usuario id:122 nombre:vsalas@acafi.com ingreso'
[10:29] -- b'Usuario id:122 nombre:vsalas@acafi.com ingreso'
[10:37] -- b'Usuario id:122 nombre:vsalas@acafi.com ingreso'
[10:40] -- b'Usuario id:122 nombre:vsalas@acafi.com ingreso'
[10:42] -- b'Usuario id:122 nombre:vsalas@acafi.com ingreso'
[10:43] -- b'Usuario id:122 nombre:vsalas@acafi.com ingreso'
[10:57] -- b'Usuario id:122 nombre:vsalas@acafi.com ingreso'
[11:06] -- b'Usuario id:122 nombre:vsalas@acafi.com ingreso'
[11:11] -- b'Usuario id:122 nombre:vsalas@acafi.com ingreso'
[11:15] -- b'Usuario id:122 nombre:vsalas@acafi.com ingreso'
[11:23] -- b'Usuario id:122 nombre:vsalas@acafi.com ingreso'
[11:29] -- b'Usuario id:122 nombre:vsalas@acafi.com ingreso'
